...................
----------------------------------------------------------------------
Ran 19 tests in 49.468s

OK
Name             Stmts   Miss Branch BrPart  Cover   Missing
------------------------------------------------------------
Collatz.py          45      0     18      0   100%
TestCollatz.py      83      0      0      0   100%
------------------------------------------------------------
TOTAL              128      0     18      0   100%